evans_inclass_lab_2.4
…
## [1] 3

\[ hate\_crimes = B_0 + B_1 * cat\_trump + B_2 * share\_pop\_hs \]

my_mod <- lm(data = less_hate2, formula = avg_hatecrimes_per_100k_fbi ~ cat_trump + share_pop_hs)
my_mod_int <- lm(data = less_hate2, formula = avg_hatecrimes_per_100k_fbi ~ cat_trump * share_pop_hs)
single_mod_hs <- lm(data = less_hate2, formula = avg_hatecrimes_per_100k_fbi ~ share_pop_hs)
single_mod_trump <- lm(data = less_hate2, formula = avg_hatecrimes_per_100k_fbi ~ cat_trump)
reg_tab <- get_regression_points(my_mod)
reg_tab_int <- get_regression_points(my_mod_int)
reg_tab_int

## # A tibble: 50 x 6
##       ID avg_hatecrimes_~ cat_trump share_pop_hs avg_hatecrimes_~ residual
##    <int>            <dbl> <fct>            <dbl>            <dbl>    <dbl>
##  1     1            1.81  more tha~        0.821             1.80    0.011
##  2     2            1.66  more tha~        0.914             2.28   -0.623
##  3     3            3.41  more tha~        0.842             1.90    1.51 
##  4     4            0.869 more tha~        0.824             1.81   -0.942
##  5     5            2.40  less tha~        0.806             2.22    0.183
##  6     6            2.80  less tha~        0.893             2.86   -0.052
##  7     7            3.77  less tha~        0.886             2.80    0.968
##  8     8            1.47  less tha~        0.874             2.72   -1.25 
##  9     9           11.0   less tha~        0.871             2.69    8.26 
## 10    10            0.698 less tha~        0.853             2.56   -1.86 
## # ... with 40 more rows

reg_tab

## # A tibble: 50 x 6
##       ID avg_hatecrimes_~ cat_trump share_pop_hs avg_hatecrimes_~ residual
##    <int>            <dbl> <fct>            <dbl>            <dbl>    <dbl>
##  1     1            1.81  more tha~        0.821             1.77    0.04 
##  2     2            1.66  more tha~        0.914             2.32   -0.663
##  3     3            3.41  more tha~        0.842             1.89    1.52 
##  4     4            0.869 more tha~        0.824             1.78   -0.915
##  5     5            2.40  less tha~        0.806             2.32    0.083
##  6     6            2.80  less tha~        0.893             2.83   -0.028
##  7     7            3.77  less tha~        0.886             2.79    0.981
##  8     8            1.47  less tha~        0.874             2.72   -1.25 
##  9     9           11.0   less tha~        0.871             2.70    8.25 
## 10    10            0.698 less tha~        0.853             2.60   -1.90 
## # ... with 40 more rows
…
